<svg xmlns="http://www.w3.org/2000/svg" width="14" height="14" viewBox="0 0 14 14">
    <g fill="none" fill-rule="evenodd">
        <path d="M0 0h14v14H0z"/>
        <g fill="#FEFEFE">
            <path d="M7.001 5.488c0-.534-.001-1.068.001-1.602 0-.118.005-.238.024-.352.051-.313.258-.538.48-.534.221.004.422.235.47.55.015.09.022.184.022.277.002 1.126.004 2.253 0 3.38-.002.412-.143.688-.372.77-.33.116-.613-.207-.621-.735-.01-.585-.002-1.17-.002-1.754H7zM8 9.508a.504.504 0 0 1-.503.492A.51.51 0 0 1 7 9.5a.509.509 0 0 1 .514-.5.503.503 0 0 1 .486.508"/>
        </g>
        <circle cx="7.5" cy="6.5" r="6" stroke="#FEFEFE"/>
    </g>
</svg>
