<svg xmlns="http://www.w3.org/2000/svg" width="26" height="24" viewBox="0 0 26 24">
    <g fill="#3C8EFE" fill-rule="evenodd" stroke="#3C8EFE">
        <path stroke-width=".704" d="M14.647 19.48c-.792-.002-1.32.514-1.327 1.296-.007.74.556 1.341 1.257 1.344.74.003 1.38-.614 1.383-1.331.003-.78-.527-1.307-1.313-1.309zm9.228-7.036c0-.669.012-1.338-.004-2.007-.01-.395-.36-.636-.868-.637-.503 0-.871.246-.875.635-.012 1.332-.01 2.664 0 3.996.002.332.25.555.631.625.601.109 1.099-.158 1.112-.623.018-.663.004-1.326.004-1.989zm-20.24.013h.004v-1.932c0-.236-.065-.453-.339-.594a1.177 1.177 0 0 0-.95-.058c-.324.112-.447.324-.466.578-.008.122-.002.245-.002.367l.001 3.535c.001.428.276.687.753.722.59.043.985-.202.996-.649.016-.656.004-1.313.004-1.97zM13.936 23c-.28-.083-.574-.14-.838-.255-1.09-.47-1.673-1.5-1.495-2.6.162-1.006 1.07-1.836 2.213-2.023 1.132-.185 2.3.335 2.849 1.27.316.538.382 1.074.22 1.868.295-.113.599-.192.859-.335.728-.402 1.477-.797 2.006-1.42.95-1.118 1.556-2.37 1.565-3.806.014-2.118.03-4.237-.011-6.355-.033-1.661-.681-3.144-1.852-4.42-1.408-1.535-3.215-2.445-5.406-2.648-2.488-.232-4.668.453-6.474 2.023-1.688 1.469-2.51 3.29-2.509 5.415.001 1.368.003 2.736 0 4.105-.003 1.008-.796 1.824-1.856 1.92-.983.088-1.943-.569-2.164-1.48-.01-.04-.028-.078-.042-.117v-4.14c.016-.052.034-.103.047-.154.212-.854 1.05-1.469 2.016-1.465.26 0 .518.043.786.068.005-.026.014-.067.02-.108a7.714 7.714 0 0 1 1.366-3.379c1.492-2.08 3.583-3.362 6.275-3.823.369-.063.744-.095 1.116-.141h1.11c.307.036.616.065.921.108 3.925.552 7.039 3.281 7.774 6.815.039.185.074.372.11.561.104-.026.185-.054.268-.068.935-.154 1.7.124 2.272.796.229.27.375.597.559.898v4.068c-.06.158-.106.322-.183.473-.446.867-1.38 1.24-2.504 1.002l-.019.121c-.148.94-.337 1.87-.79 2.735-.533 1.014-1.167 1.975-2.17 2.663-.539.37-1.144.663-1.74.958a6.549 6.549 0 0 1-2.273.636c-.454.046-.901.154-1.351.234h-.675z"/>
        <path fill-rule="nonzero" stroke-width=".55" d="M10.742 8.92c-.54 0-.974.189-1.303.566-.323.355-.484.82-.491 1.4h.82c.014-.407.098-.719.252-.922.155-.217.386-.326.694-.326.288 0 .505.065.652.203.14.138.217.348.217.631 0 .29-.112.566-.33.82-.14.152-.364.348-.686.58-.582.413-.967.732-1.15.95A2.038 2.038 0 0 0 8.92 14.2h3.49v-.747H9.943c.1-.232.355-.499.77-.8l.162-.114c.491-.34.842-.616 1.038-.834.322-.37.49-.776.49-1.226 0-.464-.154-.834-.462-1.124-.316-.29-.715-.435-1.199-.435zm4.605.102l-2.446 3.263v.805h2.418v1.11h.778v-1.11h.743v-.674h-.743V9.022h-.75zm-.049 1.073h.021v2.32h-1.752l1.731-2.32z"/>
    </g>
</svg>
