<?xml version="1.0" encoding="UTF-8"?>
<svg width="21px" height="19px" viewBox="0 0 18 16" version="1.1" xmlns="http://www.w3.org/2000/svg" xmlns:xlink="http://www.w3.org/1999/xlink">
    <!-- Generator: sketchtool 58 (101010) - https://sketch.com -->
    <title>74F88C33-7E88-4923-A13D-5730AEBA6168</title>
    <desc>Created with sketchtool.</desc>
    <g id="Symbols" stroke="none" stroke-width="1" fill="none" fill-rule="evenodd">
        <g id="pic_icon" transform="translate(-1.000000, -2.000000)">
            <g id="icon">
                <rect id="Rectangle-18" fill="#383838" opacity="0" x="0" y="0" width="20" height="20"></rect>
                <g id="icon_im_gallery" transform="translate(1.000000, 2.000000)" fill="#B0B8C2">
                    <path d="M16.6294307,11.8864411 C16.6750661,11.7100666 16.7084892,11.641249 16.7084892,11.572274 C16.7094534,8.39910756 16.696759,5.22594114 16.7143023,2.05293221 C16.7181305,1.34066265 16.3274978,1.25326278 15.7398614,1.25468007 C11.2444512,1.26601843 6.74888028,1.27263248 2.25347007,1.2492793 C1.51912547,1.24538891 1.26796997,1.49058098 1.27474135,2.20930711 C1.30364273,5.2248388 1.28612773,8.24084293 1.28950218,11.2565321 C1.28966287,11.4226706 1.32613906,11.5886516 1.35908012,11.8697485 C1.64912214,11.5368416 1.85801667,11.3031454 2.06032298,11.0639374 C3.40897818,9.46916541 4.75458031,7.87187375 6.1046817,6.27820407 C6.81411965,5.44089758 7.22355292,5.43554335 7.98682138,6.24292917 C8.53235747,6.82008326 9.07371567,7.40117428 9.62085865,7.97659612 C10.3431516,8.73610885 10.5014294,8.74225047 11.3366861,8.06242121 C12.2257734,7.33897077 12.3019395,7.34180536 13.0979884,8.17580483 C14.2589599,9.39215904 15.4165569,10.6116628 16.6294307,11.8864411 M9.07628668,0.00116123107 C11.5650239,0.00116123107 14.0537612,-0.002145791 16.5423377,0.00273600348 C17.6068964,0.00478320762 17.9952795,0.380366428 17.996565,1.41908631 C18.001225,5.51034504 18.0010643,9.60144629 17.996565,13.692705 C17.9954402,14.7358343 17.6085033,15.1162993 16.5486046,15.1170867 C11.5176209,15.1210236 6.48663731,15.1208661 1.45565367,15.1172441 C0.39254122,15.1164568 0.0043187768,14.737724 0.00319396012,13.6986892 C-0.00114461851,9.60743043 -0.00098393041,5.51632918 0.00319396012,1.42507045 C0.0043187768,0.379736519 0.38659576,0.00478320762 1.44954752,0.00273600348 C3.99179391,-0.00230326824 6.5340403,0.00116123107 9.07628668,0.00116123107" id="Fill-1"></path>
                    <path d="M13.6472711,6.47975074 C12.4575063,6.46137836 11.4905972,5.45431948 11.5206836,4.2647976 C11.5505899,3.07707693 12.5693846,2.11919121 13.757528,2.16133962 C14.9081985,2.20204706 15.8453815,3.17812505 15.84,4.33018168 C15.834572,5.51790234 14.8348741,6.497943 13.6472711,6.47975074" id="Fill-4"></path>
                </g>
            </g>
        </g>
    </g>
</svg>