<?xml version="1.0" encoding="UTF-8"?>
<svg width="20px" height="20px" viewBox="0 0 20 20" version="1.1" xmlns="http://www.w3.org/2000/svg" xmlns:xlink="http://www.w3.org/1999/xlink">
    <!-- Generator: sketchtool 58 (101010) - https://sketch.com -->
    <title>5BEA9DFC-CF34-4BC7-9477-0ACA2AD2A010</title>
    <desc>Created with sketchtool.</desc>
    <g id="Symbols" stroke="none" stroke-width="1" fill="none" fill-rule="evenodd">
        <g id="red_icon">
            <rect id="Rectangle" x="0" y="0" width="20" height="20"></rect>
            <g transform="translate(4.000000, 1.000000)" fill="#B0B8C2">
                <path d="M11.3281439,12.1332822 C11.2794089,12.1155932 11.2945709,12.0729952 11.2949319,12.0394222 C11.2956539,11.0203192 11.2978199,10.0008552 11.2996249,8.9817522 C11.2999859,8.7961982 11.3003469,8.6110052 11.3007079,8.4254512 C11.3003469,8.3633592 11.2999859,8.3012672 11.2996249,8.2388142 C11.2999859,8.0536212 11.3003469,7.8684282 11.3007079,7.6828742 C11.3003469,7.6207822 11.2999859,7.5586902 11.2996249,7.4962372 C11.2999859,7.3110442 11.3003469,7.1254902 11.3007079,6.9402972 C11.3003469,6.8782052 11.2999859,6.8161132 11.2996249,6.7540212 C11.2996249,6.6879582 11.2996249,6.6222562 11.2999859,6.5565542 C10.4642709,7.4179002 9.4379479,8.0926092 8.2867189,8.5095642 C8.2831089,8.5434982 8.2762499,8.5770712 8.2600049,8.6095612 C8.0748119,9.5607962 7.5047929,10.1950732 6.6318949,10.5755672 C6.4856899,10.6391032 6.3326259,10.6932532 6.1690929,10.7001122 C6.0990589,10.7354902 6.0228879,10.7300752 5.9477999,10.7311582 C5.7485279,10.7777272 5.5492559,10.7849472 5.3496229,10.7333242 C5.3012489,10.7282702 5.2528749,10.7232162 5.2041399,10.7181622 C5.0507149,10.7015562 4.9027049,10.6643732 4.7604709,10.6055302 C4.7092089,10.5867582 4.6510879,10.5845922 4.6110169,10.5412722 C4.4651729,10.4983132 4.3330469,10.4308062 4.2189709,10.3300872 C4.1648209,10.3178132 4.1175299,10.2950702 4.0882889,10.2456132 C3.9839599,10.1932682 3.8980419,10.1196242 3.8272859,10.0275692 C3.7789119,10.0001332 3.7406459,9.9622282 3.7132099,9.9138542 C3.6215159,9.8427372 3.5471499,9.7571802 3.4958879,9.6528512 C3.4460699,9.6232492 3.4229659,9.5763192 3.4110529,9.5221692 C3.3103339,9.4080932 3.2431879,9.2756062 3.1998679,9.1304842 C3.1561869,9.0900522 3.1540209,9.0319312 3.1356099,8.9810302 C3.0814599,8.8492652 3.0464429,8.7131682 3.0280319,8.5727392 C1.8807739,8.1889962 0.8497579,7.5529142 0.000685899999,6.7291122 C0.000324899999,6.8236942 0.000324899999,6.9186372 -3.61000007e-05,7.0132192 C0.000324899999,7.0756722 0.000685899999,7.1377642 0.0014079,7.1998562 C0.000685899999,7.3850492 0.000324899999,7.5706032 -3.61000007e-05,7.7561572 C0.000324899999,7.8178882 0.000685899999,7.8803412 0.0014079,7.9424332 C0.000685899999,8.1276262 0.000324899999,8.3131802 -3.61000007e-05,8.4987342 C0.000324899999,8.5608262 0.000685899999,8.6229182 0.0014079,8.6850102 C0.000685899999,8.8702032 0.000324899999,9.0557572 -3.61000007e-05,9.2409502 C0.000324899999,9.3034032 0.000685899999,9.3654952 0.0014079,9.4275872 C0.000685899999,9.6131412 0.000324899999,9.7983342 -3.61000007e-05,9.9835272 C0.000324899999,10.0459802 0.000685899999,10.1080722 0.0014079,10.1701642 C0.000685899999,10.3553572 0.000324899999,10.5409112 -3.61000007e-05,10.7264652 C0.000324899999,10.7881962 0.000685899999,10.8506492 0.0014079,10.9127412 C0.000685899999,11.0979342 0.000324899999,11.2834882 -3.61000007e-05,11.4686812 C0.000324899999,11.5311342 0.000685899999,11.5932262 0.0014079,11.6553182 C0.000685899999,11.8405112 0.000324899999,12.0260652 -3.61000007e-05,12.2112582 C0.000324899999,12.2737112 0.000685899999,12.3358032 0.0014079,12.3978952 C0.000685899999,12.5834492 0.000324899999,12.7686422 -3.61000007e-05,12.9538352 C0.000324899999,13.0162882 0.000685899999,13.0783802 0.0014079,13.1404722 C0.000685899999,13.3256652 0.000324899999,13.5112192 -3.61000007e-05,13.6967732 C0.000324899999,13.7585042 0.000685899999,13.8209572 0.0014079,13.8830492 C0.000685899999,14.0682422 0.000324899999,14.2537962 -3.61000007e-05,14.4389892 C0.000324899999,14.5014422 0.000685899999,14.5635342 0.0014079,14.6256262 C0.000685899999,14.8108192 0.000324899999,14.9963732 -3.61000007e-05,15.1815662 C0.0046569,15.2429362 0.0093499,15.3039452 0.0140429,15.3649542 C0.0584459,15.4732542 0.1183719,15.5728902 0.1930989,15.6631402 C0.2194519,15.6833562 0.2454439,15.7039332 0.2710749,15.7241492 C0.4205289,15.8064572 0.5833399,15.8198142 0.7490389,15.8190922 C0.8111309,15.8194532 0.8735839,15.8198142 0.9356759,15.8201752 C1.1212299,15.8198142 1.3064229,15.8194532 1.4916159,15.8190922 C1.5540689,15.8194532 1.6161609,15.8198142 1.6782529,15.8201752 C1.8612799,15.8187312 2.0450289,15.8176482 2.2284169,15.8162042 C5.0225569,15.8151212 7.8166969,15.8140382 10.6115589,15.8133162 C11.0743609,15.8133162 11.2938489,15.5945502 11.2938489,15.1331922 C11.2934879,14.3602912 11.2909609,13.5873902 11.2952929,12.8148502 C11.2963759,12.5874202 11.3165919,12.3603512 11.3281439,12.1332822" id="Fill-1"></path>
                <path d="M6.3689786,7.5352974 C6.3079696,7.4966704 6.2581516,7.4468524 6.2195246,7.3858434 C6.1762046,7.3540754 6.1357726,7.3190584 6.0985896,7.2815144 C6.0621286,7.2450534 6.0285556,7.2060654 5.9978706,7.1641894 C5.9466086,7.1143714 5.8957076,7.0652754 5.8451676,7.0158184 C5.6823566,6.9382034 5.5430106,6.9562534 5.4123286,7.0934334 C5.3469876,7.1616624 5.2802026,7.2284474 5.2145006,7.2955934 C5.0347226,7.4793424 4.8527786,7.6612864 4.6668636,7.8385374 C4.5296836,7.9695804 4.5112726,8.1085654 4.5888876,8.2717374 C4.6387056,8.3226384 4.6881626,8.3731784 4.7372586,8.4240794 C4.8228156,8.4868934 4.8968206,8.5608984 4.9592736,8.6460944 C5.0202826,8.6847214 5.0697396,8.7345394 5.1087276,8.7955484 C5.1802056,8.8482544 5.2422976,8.9107074 5.2978916,8.9792974 C5.3083606,8.9922934 5.3206346,9.0038454 5.3303816,9.0172024 C5.3816436,9.0666594 5.4321836,9.1161164 5.4830846,9.1655734 C5.6458956,9.2431884 5.7852416,9.2251384 5.9159236,9.0879584 C5.9538286,9.0486094 5.9920946,9.0103434 6.0299996,8.9717164 C6.2364916,8.7583654 6.4465936,8.5479024 6.6613886,8.3428544 C6.7982076,8.2118114 6.8166186,8.0728264 6.7386426,7.9096544 C6.6895466,7.8587534 6.6400896,7.8078524 6.5906326,7.7573124 C6.5054366,7.6944984 6.4314316,7.6204934 6.3689786,7.5352974" id="Fill-4"></path>
                <path d="M0.0014079,3.486899 C0.0010469,3.650071 0.000324899999,3.812882 -3.61000007e-05,3.975693 C0.7068019,5.291899 1.8674169,6.326886 3.2720679,6.874884 C3.5543699,6.29945 4.0298069,5.8843 4.6691379,5.605969 C4.8153429,5.542072 4.9684069,5.488283 5.1315789,5.481063 C5.2019739,5.445324 5.2777839,5.4511 5.3532329,5.450017 C5.5402309,5.400921 5.7275899,5.40417 5.9163929,5.440631 C5.9763189,5.448212 6.0366059,5.455793 6.0965319,5.463374 C6.2499569,5.47998 6.3979669,5.517163 6.5405619,5.576006 C6.5914629,5.594417 6.6495839,5.596583 6.6900159,5.639903 C6.8354989,5.683223 6.9676249,5.750369 7.0817009,5.851449 C7.1362119,5.863362 7.1831419,5.886105 7.2127439,5.935923 C7.3170729,5.987546 7.4026299,6.061912 7.4733859,6.153967 C7.5221209,6.181042 7.5596649,6.218947 7.5874619,6.267682 C7.6795169,6.338438 7.7531609,6.424356 7.8051449,6.528324 C7.8546019,6.558287 7.8777059,6.605217 7.8899799,6.659006 C7.9332999,6.708463 7.9693999,6.761891 8.0011679,6.817485 C9.4606909,6.205951 10.6404389,5.061581 11.2999859,3.62805 C11.3003469,3.49448 11.3007079,3.36091 11.3010689,3.22734 C11.3003469,3.165248 11.2999859,3.103156 11.2996249,3.041064 C11.2999859,2.85551 11.3003469,2.670317 11.3010689,2.484763 C11.3003469,2.422671 11.2999859,2.360579 11.2996249,2.298487 C11.2999859,2.112933 11.3003469,1.92774 11.3010689,1.742186 C11.3003469,1.680094 11.2999859,1.618002 11.2996249,1.55591 C11.2999859,1.370356 11.3003469,1.185163 11.3010689,0.999609 C11.2960149,0.9386 11.2913219,0.877591 11.2869899,0.816582 C11.2422259,0.707921 11.1826609,0.608285 11.1075729,0.518035 C11.0812199,0.497819 11.0555889,0.477603 11.0295969,0.457026 C10.8805039,0.375079 10.7173319,0.361722 10.5516329,0.362083 C10.4895409,0.361722 10.4274489,0.361361 10.3653569,0.361 C10.1798029,0.361361 9.9946099,0.361722 9.8090559,0.362083 C9.7469639,0.361722 9.6848719,0.361361 9.6224189,0.361 C9.4372259,0.361361 9.2520329,0.361722 9.0664789,0.362083 C9.0040259,0.361722 8.9422949,0.361361 8.8802029,0.361 C8.6946489,0.361361 8.5090949,0.361722 8.3239019,0.362083 C8.2618099,0.361722 8.1997179,0.361361 8.1376259,0.361 C7.9520719,0.361361 7.7668789,0.361722 7.5813249,0.362083 C7.5192329,0.361722 7.4567799,0.361361 7.3946879,0.361 C7.2094949,0.361361 7.0239409,0.361722 6.8387479,0.362083 C6.7766559,0.361722 6.7145639,0.361361 6.6524719,0.361 C6.4669179,0.361361 6.2813639,0.361722 6.0961709,0.362083 C6.0340789,0.361722 5.9719869,0.361361 5.9095339,0.361 C5.7247019,0.361361 5.5391479,0.361722 5.3535939,0.362083 C5.2915019,0.361722 5.2290489,0.361361 5.1673179,0.361 C4.9817639,0.361361 4.7962099,0.361722 4.6110169,0.362083 C4.5489249,0.361722 4.4868329,0.361361 4.4247409,0.361 C4.2391869,0.361361 4.0539939,0.361722 3.8684399,0.362083 C3.8063479,0.361722 3.7442559,0.361361 3.6818029,0.361 C3.4966099,0.361361 3.3114169,0.361722 3.1258629,0.362083 C3.0634099,0.361722 3.0016789,0.361361 2.9395869,0.361 C2.7540329,0.361361 2.5684789,0.361722 2.3832859,0.362083 C2.3211939,0.361722 2.2591019,0.361361 2.1970099,0.361 C2.0114559,0.361361 1.8262629,0.361722 1.6407089,0.362083 C1.5786169,0.361722 1.5165249,0.361361 1.4540719,0.361 C1.2688789,0.361361 1.0836859,0.361722 0.8981319,0.362083 C0.8360399,0.361722 0.7739479,0.361361 0.7118559,0.361 C0.2050119,0.392407 0.0313709,0.56677 -3.61000007e-05,1.072892 C0.000324899999,1.134984 0.000685899999,1.197076 0.0014079,1.259168 C0.000685899999,1.444722 0.000324899999,1.629915 -3.61000007e-05,1.815469 C0.000324899999,1.877561 0.000685899999,1.939653 0.0014079,2.001745 C0.000685899999,2.186938 0.000324899999,2.372492 -3.61000007e-05,2.558046 C0.000324899999,2.620138 0.000685899999,2.68223 0.0014079,2.744322 C0.000685899999,2.929876 0.000324899999,3.115069 -3.61000007e-05,3.300262 C0.000324899999,3.362715 0.000685899999,3.424807 0.0014079,3.486899" id="Fill-6"></path>
            </g>
        </g>
    </g>
</svg>