<svg xmlns="http://www.w3.org/2000/svg" xmlns:xlink="http://www.w3.org/1999/xlink" width="177" height="190" viewBox="0 0 177 190">
    <defs>
        <linearGradient id="b" x1="10.199%" x2="93.392%" y1="0%" y2="100%">
            <stop offset="1.259%" stop-color="#FF77A2"/>
            <stop offset="100%" stop-color="#F66161"/>
        </linearGradient>
        <rect id="a" width="177" height="190" rx="5"/>
    </defs>
    <g fill="none" fill-rule="evenodd">
        <mask id="c" fill="#fff">
            <use xlink:href="#a"/>
        </mask>
        <use fill="url(#b)" xlink:href="#a"/>
        <path fill="#FFF" d="M250 108l-75.4-81.778L-121 26l75.4 81.778z" mask="url(#c)" opacity=".063"/>
        <path fill="#FFF" d="M291 152l-75.4-81.778L-80 70l75.4 81.778z" mask="url(#c)" opacity=".103"/>
    </g>
</svg>
